^C:\USERS\DAVID\DOCUMENTS\VISUAL STUDIO 2010\PROJECTS\VOCE-0.9.1\SAMPLES\RECOGNITIONTEST\C++\RELEASE\RECOGNITIONTEST.EXE.INTERMEDIATE.MANIFEST
/nologo /verbose /outputresource:"Release\recognitionTest.exe;#1" /manifest Release\recognitionTest.exe.intermediate.manifest
^C:\USERS\DAVID CHEN\DOCUMENTS\VISUAL STUDIO 2010\PROJECTS\VOCE-0.9.1\SAMPLES\RECOGNITIONTEST\C++\RELEASE\RECOGNITIONTEST.EXE.INTERMEDIATE.MANIFEST
/nologo /verbose /outputresource:"Release\recognitionTest.exe;#1" /manifest Release\recognitionTest.exe.intermediate.manifest
