^C:\USERS\DAVID CHEN\DOCUMENTS\VISUAL STUDIO 2010\PROJECTS\ARTK_MMD_SRC\ARTK_MMD\DEBUG\ARTK.OBJ|C:\USERS\DAVID CHEN\DOCUMENTS\VISUAL STUDIO 2010\PROJECTS\ARTK_MMD_SRC\ARTK_MMD\DEBUG\ARTK_MMD.EXE.EMBED.MANIFEST.RES|C:\USERS\DAVID CHEN\DOCUMENTS\VISUAL STUDIO 2010\PROJECTS\ARTK_MMD_SRC\ARTK_MMD\DEBUG\BULLETPHYSICS.OBJ|C:\USERS\DAVID CHEN\DOCUMENTS\VISUAL STUDIO 2010\PROJECTS\ARTK_MMD_SRC\ARTK_MMD\DEBUG\ERRORMES.OBJ|C:\USERS\DAVID CHEN\DOCUMENTS\VISUAL STUDIO 2010\PROJECTS\ARTK_MMD_SRC\ARTK_MMD\DEBUG\MAIN.OBJ|C:\USERS\DAVID CHEN\DOCUMENTS\VISUAL STUDIO 2010\PROJECTS\ARTK_MMD_SRC\ARTK_MMD\DEBUG\MOTIONPLAYER.OBJ|C:\USERS\DAVID CHEN\DOCUMENTS\VISUAL STUDIO 2010\PROJECTS\ARTK_MMD_SRC\ARTK_MMD\DEBUG\PMDBONE.OBJ|C:\USERS\DAVID CHEN\DOCUMENTS\VISUAL STUDIO 2010\PROJECTS\ARTK_MMD_SRC\ARTK_MMD\DEBUG\PMDCONSTRAINT.OBJ|C:\USERS\DAVID CHEN\DOCUMENTS\VISUAL STUDIO 2010\PROJECTS\ARTK_MMD_SRC\ARTK_MMD\DEBUG\PMDFACE.OBJ|C:\USERS\DAVID CHEN\DOCUMENTS\VISUAL STUDIO 2010\PROJECTS\ARTK_MMD_SRC\ARTK_MMD\DEBUG\PMDIK.OBJ|C:\USERS\DAVID CHEN\DOCUMENTS\VISUAL STUDIO 2010\PROJECTS\ARTK_MMD_SRC\ARTK_MMD\DEBUG\PMDMODEL.OBJ|C:\USERS\DAVID CHEN\DOCUMENTS\VISUAL STUDIO 2010\PROJECTS\ARTK_MMD_SRC\ARTK_MMD\DEBUG\PMDRIGIDBODY.OBJ|C:\USERS\DAVID CHEN\DOCUMENTS\VISUAL STUDIO 2010\PROJECTS\ARTK_MMD_SRC\ARTK_MMD\DEBUG\TEXTURELIST.OBJ|C:\USERS\DAVID CHEN\DOCUMENTS\VISUAL STUDIO 2010\PROJECTS\ARTK_MMD_SRC\ARTK_MMD\DEBUG\VECMATQUAT.OBJ|C:\USERS\DAVID CHEN\DOCUMENTS\VISUAL STUDIO 2010\PROJECTS\ARTK_MMD_SRC\ARTK_MMD\DEBUG\VMDBEZIER.OBJ|C:\USERS\DAVID CHEN\DOCUMENTS\VISUAL STUDIO 2010\PROJECTS\ARTK_MMD_SRC\ARTK_MMD\DEBUG\VMDMOTION.OBJ
/ERRORREPORT:PROMPT /OUT:"C:\Users\David Chen\Documents\Visual Studio 2010\Projects\ARTK_MMD_src\Debug\ARTK_MMD.exe" /INCREMENTAL /NOLOGO /LIBPATH:"C:\Program Files (x86)\Microsoft Visual Studio 10.0\VC\lib" /LIBPATH:"C:\Program Files\bullet\out\debug8\libs" /LIBPATH:D:\Vocaloid2\ARToolKit\lib libar.lib libargsub_lite.lib libarvideo.lib libbulletmath_d.lib libbulletcollision_d.lib libbulletdynamics_d.lib jvm.lib kernel32.lib user32.lib gdi32.lib winspool.lib comdlg32.lib advapi32.lib shell32.lib ole32.lib oleaut32.lib uuid.lib odbc32.lib odbccp32.lib /NODEFAULTLIB:libcmt.lib /MANIFEST /ManifestFile:"Debug\ARTK_MMD.exe.intermediate.manifest" /MANIFESTUAC:"level='asInvoker' uiAccess='false'" /DEBUG /PDB:"C:\Users\David Chen\Documents\Visual Studio 2010\Projects\ARTK_MMD_src\Debug\ARTK_MMD.pdb" /SUBSYSTEM:CONSOLE /TLBID:1 /ENTRY:"mainCRTStartup" /DYNAMICBASE /NXCOMPAT /IMPLIB:"C:\Users\David Chen\Documents\Visual Studio 2010\Projects\ARTK_MMD_src\Debug\ARTK_MMD.lib" /MACHINE:X86 Debug\ARTK_MMD.exe.embed.manifest.res
Debug\MotionPlayer.obj
Debug\PMDBone.obj
Debug\PMDConstraint.obj
Debug\PMDFace.obj
Debug\PMDIK.obj
Debug\PMDModel.obj
Debug\PMDRigidBody.obj
Debug\TextureList.obj
Debug\VecMatQuat.obj
Debug\VMDBezier.obj
Debug\VMDMotion.obj
Debug\ARTK.obj
Debug\BulletPhysics.obj
Debug\ErrorMes.obj
Debug\main.obj
