^D:\VOCALOID2\ARTK_MMD_SRC\ARTK_MMD\DEBUG\ARTK_MMD.EXE.INTERMEDIATE.MANIFEST
/nologo /verbose /out:"Debug\ARTK_MMD.exe.embed.manifest" /manifest Debug\ARTK_MMD.exe.intermediate.manifest
^C:\USERS\DAVID CHEN\DOCUMENTS\VISUAL STUDIO 2010\PROJECTS\ARTK_MMD_SRC\ARTK_MMD\DEBUG\ARTK_MMD.EXE.INTERMEDIATE.MANIFEST
/nologo /verbose /out:"Debug\ARTK_MMD.exe.embed.manifest" /manifest Debug\ARTK_MMD.exe.intermediate.manifest
