^C:\USERS\DAVID\DOCUMENTS\VISUAL STUDIO 2010\PROJECTS\VOCE-0.9.1\SAMPLES\SYNTHESISTEST\C++\RELEASE\SYNTHESISTEST.EXE.INTERMEDIATE.MANIFEST
C:\WINDOWS\SYSTEM32\TZRES.DLL
C:\WINDOWS\MICROSOFT.NET\FRAMEWORK\V2.0.50727\MSCORWKS.DLL
C:\WINDOWS\MICROSOFT.NET\FRAMEWORK\V4.0.30319\CLR.DLL
C:\PROGRAM FILES (X86)\MICROSOFT SDKS\WINDOWS\V7.0A\BIN\MT.EXE.CONFIG
C:\USERS\DAVID\DOCUMENTS\VISUAL STUDIO 2010\PROJECTS\VOCE-0.9.1\SAMPLES\SYNTHESISTEST\C++\RELEASE\SYNTHESISTEST.EXE
